<svg xmlns="http://www.w3.org/2000/svg" width="33" height="26.713" viewBox="0 0 33 26.713">
  <g id="Messagerie_Statut_evaluation_icon" transform="translate(-2.5 -11.6)">
    <g id="Groupe_29" data-name="Groupe 29" transform="translate(2.5 11.6)">
      <path id="Tracé_1759" data-name="Tracé 1759" d="M26.468,11.6H11.532A9.036,9.036,0,0,0,2.5,20.632v3.613a9.036,9.036,0,0,0,9.032,9.032h2.605l2.015,3.4A3.3,3.3,0,0,0,19,38.313a3.224,3.224,0,0,0,2.848-1.633l2.015-3.4h2.605A9.036,9.036,0,0,0,35.5,24.244V20.632A9.014,9.014,0,0,0,26.468,11.6Zm6.947,12.644A6.908,6.908,0,0,1,26.5,31.157h-3.2a1.08,1.08,0,0,0-.9.521l-2.362,3.891A1.138,1.138,0,0,1,19,36.159a1.216,1.216,0,0,1-1.042-.591l-2.327-3.925a1.037,1.037,0,0,0-.9-.521h-3.2a6.886,6.886,0,0,1-6.947-6.878V20.632A6.908,6.908,0,0,1,11.5,13.719H26.468a6.908,6.908,0,0,1,6.913,6.913v3.613Z" transform="translate(-2.5 -11.6)" fill="#040037"/>
      <path id="Tracé_1760" data-name="Tracé 1760" d="M70.368,35.311l-1.563-.243-.729-1.459a.394.394,0,0,0-.695,0l-.695,1.424-1.6.243a.424.424,0,0,0-.313.278.392.392,0,0,0,.1.382l1.146,1.112-.278,1.6a.413.413,0,0,0,.139.382.364.364,0,0,0,.417.035l1.424-.729,1.424.764a.313.313,0,0,0,.174.035.644.644,0,0,0,.243-.069.413.413,0,0,0,.139-.382l-.278-1.563,1.146-1.146a.392.392,0,0,0,.1-.382A.493.493,0,0,0,70.368,35.311Z" transform="translate(-43.134 -25.827)" fill="#040037"/>
      <path id="Tracé_1761" data-name="Tracé 1761" d="M47.068,35.376,45.5,35.133l-.729-1.424a.382.382,0,0,0-.347-.208h0a.382.382,0,0,0-.347.208l-.695,1.424-1.6.243a.424.424,0,0,0-.313.278.392.392,0,0,0,.1.382l1.112,1.112-.278,1.6a.413.413,0,0,0,.139.382.364.364,0,0,0,.417.035l1.424-.729,1.424.764a.313.313,0,0,0,.174.035.644.644,0,0,0,.243-.069.386.386,0,0,0,.139-.382L46.1,37.217l1.146-1.146a.392.392,0,0,0,.1-.382A.334.334,0,0,0,47.068,35.376Z" transform="translate(-27.928 -25.893)" fill="#040037"/>
      <path id="Tracé_1762" data-name="Tracé 1762" d="M23.868,35.311l-1.563-.243-.729-1.459a.394.394,0,0,0-.695,0l-.695,1.424-1.6.243a.424.424,0,0,0-.313.278.392.392,0,0,0,.1.382l1.146,1.112-.313,1.633a.413.413,0,0,0,.139.382.364.364,0,0,0,.417.035l1.424-.729,1.424.764a.313.313,0,0,0,.174.035.644.644,0,0,0,.243-.069.413.413,0,0,0,.139-.382L22.9,37.152l1.146-1.146a.392.392,0,0,0,.1-.382A.373.373,0,0,0,23.868,35.311Z" transform="translate(-12.787 -25.827)" fill="#040037"/>
    </g>
  </g>
</svg>
